{
"prefix": "!",

"sortingHatID": "521409656489377813",

"errNoDm": "Please do not message the bot, use the appropriate channels in the server (like **#role-commands**) to run commands.",
"errBadPrefix": "Commands in this channel must use the #role-commands prefix:",
"errUnknownCmd": "We didn't recognize that command. Did you type it correctly? Double check by comparing to the commands at the top of #role-commands.",
"errBadParse": "We couldn't interpret your command. Please read the #welcome channel and look over the commands in #role-commands.",
"errDmBot": "Please do not message the bot directly, use the server to run commands.",
"errOldKC": "We have merged the Chambers of Xeric and Theatre of Blood WDR servers, so you must specify the raid for which you are setting your kill-count. You can do this with `!cox` and `!tob` respectively.",
"errArgNaN": "Your kill-count must be a number.",
"errKcNegative": "You cannot have a negative kill-count.",
"errNoChange": ["You are already **", "**. There's no need to update your kill-count until you have fulfilled the requirement for the new tier."],
"errT5NoMod": "You cannot lower your Chambers of Xeric experience from Tier 5 using #role-commands. If you actually meant to do this, please contact a moderator.",
"errKCLow": "You cannot have this role until you are ",
"errCatchAll": "Something weird happened. Please message a mod and have them forward this to the bot developers:\n",
"notifRoleAdd": "has been added to your roles.",
"notifRoleRem": "has been removed from your roles.",
"notifIronAdd": "**Ironman** and **FFA** have been added to your roles.",
"notifIronRem": "**Ironman** and **FFA** have been removed from your roles.",
"notifLocMod": "Your location has been updated. You can change it at any time (by using the command for another location) or remove it (by using the command for your current location again).",
"notifLocRem": "Your location has been removed. You can add a new one at any time.",
"notifCoxKC": "Your Chambers of Xeric kill-count has been updated successfully!",
"notifTobKC": "Your Theatre of Blood kill-count has been updated successfully!",
"warnT5Verif": "Your Chambers of Xeric expertise has been set to **Tier 4 (Advanced)**, but *you meet the requirements* for **Tier 5 (Elite)**. To obtain this tier, please follow the steps in the **#t5-verification** channel.",

  "oceania"   :"408248062658609153",
  "uswest"    :"408248047974350848",
  "useast"    :"408248033034371082",
  "europe"    :"408248019339837441",

  "ffa"       :"408222042492764160",
  "iron"      :"408222039569334282",

  "mass"      :"408221081057492993",
  "events"    :"408222125573537794",
  "intro"     :"419285825281589259",
  "vv"        :"438612513416806401",
  "alter"     :"439218129378476042",
  "prescout"  :"440374451834716160",

  "lrnmass"   :"551110999822958598",
  "advmass"   :"442125897324036106",
  "unranked"  :"442526951350075416",

  "diary"     :"669399012201463808",
  "nonraider" :"442590109599268864",
  "coxlearner":"644528392418623488",
  "cox0"      :"408191409892360192",
  "cox1"      :"408191464766439434",
  "cox2"      :"408191506550358017",
  "cox3"      :"408191842258124800",
  "cox4"      :"408191873925251073",
  "cox5"      :"408191912462516224",
  "cmintro"   :"613871676572041236",

  "tob0"      :"694326623981535382",
  "tob1"      :"520748851691388929",
  "tob2"      :"520748989033873408",
  "tob3"      :"591269156247044096",
  "tob4"      :"520749089692975109",
  "tob5"      :"591269143815127070",
  "verzik"    :"556557558761127936",

  "nightmare" :"751809060755472465"
}